NoID;A1;A2;A3;A4;Disease
0;AA;152.522201822802;147.966461981174;132.340194347595;M1
1;AA;18.7131577189311;23.0351482966652;173.707814305872;M2
2;AA;119.644176884338;39.7257081109212;141.376788043382;M3
3;AA;38.8999988443482;108.510272548163;167.669113490898;M4
4;AA;76.1269612581185;131.543560643103;182.610346524986;
5;AA;172.984793832031;201.510355876721;149.614446667032;M1
6;AA;-31.0837125486663;33.8511744490106;161.81160043586;M2
7;AA;167.435598644538;-26.7607476675198;118.413425972102;M3
8;AA;51.7693035986485;152.509916044814;101.794171816205;M4
9;AA;48.1452945801429;88.7054324868611;112.453610185212;